project/pd0/test_pd.vcd
$date
	Fri Sep 12 16:44:33 2025
$end
$version
	ModelSim Version 2020.1
$end
$timescale
	1ps
$end

$scope module top $end
$var reg 1 ! clock $end
$var reg 1 " reset $end
$var integer 32 # counter $end
$var integer 32 $ errors $end
$var reg 1 % reset_done $end
$var reg 1 & reset_neg $end
$var reg 1 ' reset_reg $end
$var integer 32 ( reset_counter $end
$var reg 1 ) assign_xor_op1 $end
$var reg 1 * assign_xor_op2 $end
$var reg 1 + assign_xor_res $end
$var reg 2 , alu_sel [1:0] $end
$var reg 32 - alu_op1 [31:0] $end
$var reg 32 . alu_op2 [31:0] $end
$var reg 32 / alu_res [31:0] $end
$var reg 32 0 reg_rst_inp [31:0] $end
$var reg 32 1 reg_rst_out [31:0] $end
$var reg 32 2 tsp_op1 [31:0] $end
$var reg 32 3 tsp_op2 [31:0] $end
$var reg 32 4 tsp_out [31:0] $end

$scope module clkg $end
$var reg 1 5 clk $end
$var reg 1 6 rst $end
$var integer 32 7 counter $end
$upscope $end

$scope module dut $end
$var wire 1 8 clk $end
$var wire 1 9 reset $end

$scope module core $end
$var parameter 32 : DWIDTH $end
$var wire 1 8 clk $end
$var wire 1 9 reset $end
$var reg 1 ; assign_xor_op1 $end
$var reg 1 < assign_xor_op2 $end
$var reg 1 = assign_xor_res $end
$var reg 32 > alu_op1 [31:0] $end
$var reg 32 ? alu_op2 [31:0] $end
$var reg 2 @ alu_sel [1:0] $end
$var reg 32 A alu_res [31:0] $end
$var reg 32 B reg_in [31:0] $end
$var reg 32 C reg_out [31:0] $end
$var reg 32 D pipe_op1 [31:0] $end
$var reg 32 E pipe_op2 [31:0] $end
$var reg 32 F pipe_res [31:0] $end

$scope module assign_xor_0 $end
$var wire 1 G op1_i $end
$var wire 1 H op2_i $end
$var reg 1 I res_o $end
$upscope $end

$scope module alu_0 $end
$var parameter 32 J DWIDTH $end
$var wire 1 K sel_i [1] $end
$var wire 1 L sel_i [0] $end
$var wire 1 M op1_i [31] $end
$var wire 1 N op1_i [30] $end
$var wire 1 O op1_i [29] $end
$var wire 1 P op1_i [28] $end
$var wire 1 Q op1_i [27] $end
$var wire 1 R op1_i [26] $end
$var wire 1 S op1_i [25] $end
$var wire 1 T op1_i [24] $end
$var wire 1 U op1_i [23] $end
$var wire 1 V op1_i [22] $end
$var wire 1 W op1_i [21] $end
$var wire 1 X op1_i [20] $end
$var wire 1 Y op1_i [19] $end
$var wire 1 Z op1_i [18] $end
$var wire 1 [ op1_i [17] $end
$var wire 1 \ op1_i [16] $end
$var wire 1 ] op1_i [15] $end
$var wire 1 ^ op1_i [14] $end
$var wire 1 _ op1_i [13] $end
$var wire 1 ` op1_i [12] $end
$var wire 1 a op1_i [11] $end
$var wire 1 b op1_i [10] $end
$var wire 1 c op1_i [9] $end
$var wire 1 d op1_i [8] $end
$var wire 1 e op1_i [7] $end
$var wire 1 f op1_i [6] $end
$var wire 1 g op1_i [5] $end
$var wire 1 h op1_i [4] $end
$var wire 1 i op1_i [3] $end
$var wire 1 j op1_i [2] $end
$var wire 1 k op1_i [1] $end
$var wire 1 l op1_i [0] $end
$var wire 1 m op2_i [31] $end
$var wire 1 n op2_i [30] $end
$var wire 1 o op2_i [29] $end
$var wire 1 p op2_i [28] $end
$var wire 1 q op2_i [27] $end
$var wire 1 r op2_i [26] $end
$var wire 1 s op2_i [25] $end
$var wire 1 t op2_i [24] $end
$var wire 1 u op2_i [23] $end
$var wire 1 v op2_i [22] $end
$var wire 1 w op2_i [21] $end
$var wire 1 x op2_i [20] $end
$var wire 1 y op2_i [19] $end
$var wire 1 z op2_i [18] $end
$var wire 1 { op2_i [17] $end
$var wire 1 | op2_i [16] $end
$var wire 1 } op2_i [15] $end
$var wire 1 ~ op2_i [14] $end
$var wire 1 !! op2_i [13] $end
$var wire 1 "! op2_i [12] $end
$var wire 1 #! op2_i [11] $end
$var wire 1 $! op2_i [10] $end
$var wire 1 %! op2_i [9] $end
$var wire 1 &! op2_i [8] $end
$var wire 1 '! op2_i [7] $end
$var wire 1 (! op2_i [6] $end
$var wire 1 )! op2_i [5] $end
$var wire 1 *! op2_i [4] $end
$var wire 1 +! op2_i [3] $end
$var wire 1 ,! op2_i [2] $end
$var wire 1 -! op2_i [1] $end
$var wire 1 .! op2_i [0] $end
$var reg 32 /! res_o [31:0] $end
$var reg 1 0! zero_o $end
$var reg 1 1! neg_o $end
$upscope $end

$scope module reg_0 $end
$var parameter 32 2! DWIDTH $end
$var wire 1 8 clk $end
$var wire 1 9 rst $end
$var wire 1 3! in_i [31] $end
$var wire 1 4! in_i [30] $end
$var wire 1 5! in_i [29] $end
$var wire 1 6! in_i [28] $end
$var wire 1 7! in_i [27] $end
$var wire 1 8! in_i [26] $end
$var wire 1 9! in_i [25] $end
$var wire 1 :! in_i [24] $end
$var wire 1 ;! in_i [23] $end
$var wire 1 <! in_i [22] $end
$var wire 1 =! in_i [21] $end
$var wire 1 >! in_i [20] $end
$var wire 1 ?! in_i [19] $end
$var wire 1 @! in_i [18] $end
$var wire 1 A! in_i [17] $end
$var wire 1 B! in_i [16] $end
$var wire 1 C! in_i [15] $end
$var wire 1 D! in_i [14] $end
$var wire 1 E! in_i [13] $end
$var wire 1 F! in_i [12] $end
$var wire 1 G! in_i [11] $end
$var wire 1 H! in_i [10] $end
$var wire 1 I! in_i [9] $end
$var wire 1 J! in_i [8] $end
$var wire 1 K! in_i [7] $end
$var wire 1 L! in_i [6] $end
$var wire 1 M! in_i [5] $end
$var wire 1 N! in_i [4] $end
$var wire 1 O! in_i [3] $end
$var wire 1 P! in_i [2] $end
$var wire 1 Q! in_i [1] $end
$var wire 1 R! in_i [0] $end
$var reg 32 S! out_o [31:0] $end
$upscope $end

$scope module pipeline_0 $end
$var parameter 32 T! DWIDTH $end
$var parameter 32 U! STAGE_DWIDTH $end
$var wire 1 8 clk $end
$var wire 1 9 rst $end
$var wire 1 V! op1_i [31] $end
$var wire 1 W! op1_i [30] $end
$var wire 1 X! op1_i [29] $end
$var wire 1 Y! op1_i [28] $end
$var wire 1 Z! op1_i [27] $end
$var wire 1 [! op1_i [26] $end
$var wire 1 \! op1_i [25] $end
$var wire 1 ]! op1_i [24] $end
$var wire 1 ^! op1_i [23] $end
$var wire 1 _! op1_i [22] $end
$var wire 1 `! op1_i [21] $end
$var wire 1 a! op1_i [20] $end
$var wire 1 b! op1_i [19] $end
$var wire 1 c! op1_i [18] $end
$var wire 1 d! op1_i [17] $end
$var wire 1 e! op1_i [16] $end
$var wire 1 f! op1_i [15] $end
$var wire 1 g! op1_i [14] $end
$var wire 1 h! op1_i [13] $end
$var wire 1 i! op1_i [12] $end
$var wire 1 j! op1_i [11] $end
$var wire 1 k! op1_i [10] $end
$var wire 1 l! op1_i [9] $end
$var wire 1 m! op1_i [8] $end
$var wire 1 n! op1_i [7] $end
$var wire 1 o! op1_i [6] $end
$var wire 1 p! op1_i [5] $end
$var wire 1 q! op1_i [4] $end
$var wire 1 r! op1_i [3] $end
$var wire 1 s! op1_i [2] $end
$var wire 1 t! op1_i [1] $end
$var wire 1 u! op1_i [0] $end
$var wire 1 v! op2_i [31] $end
$var wire 1 w! op2_i [30] $end
$var wire 1 x! op2_i [29] $end
$var wire 1 y! op2_i [28] $end
$var wire 1 z! op2_i [27] $end
$var wire 1 {! op2_i [26] $end
$var wire 1 |! op2_i [25] $end
$var wire 1 }! op2_i [24] $end
$var wire 1 ~! op2_i [23] $end
$var wire 1 !" op2_i [22] $end
$var wire 1 "" op2_i [21] $end
$var wire 1 #" op2_i [20] $end
$var wire 1 $" op2_i [19] $end
$var wire 1 %" op2_i [18] $end
$var wire 1 &" op2_i [17] $end
$var wire 1 '" op2_i [16] $end
$var wire 1 (" op2_i [15] $end
$var wire 1 )" op2_i [14] $end
$var wire 1 *" op2_i [13] $end
$var wire 1 +" op2_i [12] $end
$var wire 1 ," op2_i [11] $end
$var wire 1 -" op2_i [10] $end
$var wire 1 ." op2_i [9] $end
$var wire 1 /" op2_i [8] $end
$var wire 1 0" op2_i [7] $end
$var wire 1 1" op2_i [6] $end
$var wire 1 2" op2_i [5] $end
$var wire 1 3" op2_i [4] $end
$var wire 1 4" op2_i [3] $end
$var wire 1 5" op2_i [2] $end
$var wire 1 6" op2_i [1] $end
$var wire 1 7" op2_i [0] $end
$var reg 32 8" res_o [31:0] $end
$var reg 32 9" stage1_res [31:0] $end
$var reg 32 :" stage1_reg_out [31:0] $end
$var reg 32 ;" stage2_reg_out [31:0] $end

$scope module alu_stage1 $end
$var parameter 32 <" DWIDTH $end
$var wire 1 =" sel_i [1] $end
$var wire 1 >" sel_i [0] $end
$var wire 1 V! op1_i [31] $end
$var wire 1 W! op1_i [30] $end
$var wire 1 X! op1_i [29] $end
$var wire 1 Y! op1_i [28] $end
$var wire 1 Z! op1_i [27] $end
$var wire 1 [! op1_i [26] $end
$var wire 1 \! op1_i [25] $end
$var wire 1 ]! op1_i [24] $end
$var wire 1 ^! op1_i [23] $end
$var wire 1 _! op1_i [22] $end
$var wire 1 `! op1_i [21] $end
$var wire 1 a! op1_i [20] $end
$var wire 1 b! op1_i [19] $end
$var wire 1 c! op1_i [18] $end
$var wire 1 d! op1_i [17] $end
$var wire 1 e! op1_i [16] $end
$var wire 1 f! op1_i [15] $end
$var wire 1 g! op1_i [14] $end
$var wire 1 h! op1_i [13] $end
$var wire 1 i! op1_i [12] $end
$var wire 1 j! op1_i [11] $end
$var wire 1 k! op1_i [10] $end
$var wire 1 l! op1_i [9] $end
$var wire 1 m! op1_i [8] $end
$var wire 1 n! op1_i [7] $end
$var wire 1 o! op1_i [6] $end
$var wire 1 p! op1_i [5] $end
$var wire 1 q! op1_i [4] $end
$var wire 1 r! op1_i [3] $end
$var wire 1 s! op1_i [2] $end
$var wire 1 t! op1_i [1] $end
$var wire 1 u! op1_i [0] $end
$var wire 1 v! op2_i [31] $end
$var wire 1 w! op2_i [30] $end
$var wire 1 x! op2_i [29] $end
$var wire 1 y! op2_i [28] $end
$var wire 1 z! op2_i [27] $end
$var wire 1 {! op2_i [26] $end
$var wire 1 |! op2_i [25] $end
$var wire 1 }! op2_i [24] $end
$var wire 1 ~! op2_i [23] $end
$var wire 1 !" op2_i [22] $end
$var wire 1 "" op2_i [21] $end
$var wire 1 #" op2_i [20] $end
$var wire 1 $" op2_i [19] $end
$var wire 1 %" op2_i [18] $end
$var wire 1 &" op2_i [17] $end
$var wire 1 '" op2_i [16] $end
$var wire 1 (" op2_i [15] $end
$var wire 1 )" op2_i [14] $end
$var wire 1 *" op2_i [13] $end
$var wire 1 +" op2_i [12] $end
$var wire 1 ," op2_i [11] $end
$var wire 1 -" op2_i [10] $end
$var wire 1 ." op2_i [9] $end
$var wire 1 /" op2_i [8] $end
$var wire 1 0" op2_i [7] $end
$var wire 1 1" op2_i [6] $end
$var wire 1 2" op2_i [5] $end
$var wire 1 3" op2_i [4] $end
$var wire 1 4" op2_i [3] $end
$var wire 1 5" op2_i [2] $end
$var wire 1 6" op2_i [1] $end
$var wire 1 7" op2_i [0] $end
$var reg 32 ?" res_o [31:0] $end
$var reg 1 @" zero_o $end
$var reg 1 A" neg_o $end
$upscope $end

$scope module reg_stage1 $end
$var parameter 32 B" DWIDTH $end
$var wire 1 8 clk $end
$var wire 1 9 rst $end
$var wire 1 C" in_i [31] $end
$var wire 1 D" in_i [30] $end
$var wire 1 E" in_i [29] $end
$var wire 1 F" in_i [28] $end
$var wire 1 G" in_i [27] $end
$var wire 1 H" in_i [26] $end
$var wire 1 I" in_i [25] $end
$var wire 1 J" in_i [24] $end
$var wire 1 K" in_i [23] $end
$var wire 1 L" in_i [22] $end
$var wire 1 M" in_i [21] $end
$var wire 1 N" in_i [20] $end
$var wire 1 O" in_i [19] $end
$var wire 1 P" in_i [18] $end
$var wire 1 Q" in_i [17] $end
$var wire 1 R" in_i [16] $end
$var wire 1 S" in_i [15] $end
$var wire 1 T" in_i [14] $end
$var wire 1 U" in_i [13] $end
$var wire 1 V" in_i [12] $end
$var wire 1 W" in_i [11] $end
$var wire 1 X" in_i [10] $end
$var wire 1 Y" in_i [9] $end
$var wire 1 Z" in_i [8] $end
$var wire 1 [" in_i [7] $end
$var wire 1 \" in_i [6] $end
$var wire 1 ]" in_i [5] $end
$var wire 1 ^" in_i [4] $end
$var wire 1 _" in_i [3] $end
$var wire 1 `" in_i [2] $end
$var wire 1 a" in_i [1] $end
$var wire 1 b" in_i [0] $end
$var reg 32 c" out_o [31:0] $end
$upscope $end

$scope module alu_stage2 $end
$var parameter 32 d" DWIDTH $end
$var wire 1 e" sel_i [1] $end
$var wire 1 f" sel_i [0] $end
$var wire 1 g" op1_i [31] $end
$var wire 1 h" op1_i [30] $end
$var wire 1 i" op1_i [29] $end
$var wire 1 j" op1_i [28] $end
$var wire 1 k" op1_i [27] $end
$var wire 1 l" op1_i [26] $end
$var wire 1 m" op1_i [25] $end
$var wire 1 n" op1_i [24] $end
$var wire 1 o" op1_i [23] $end
$var wire 1 p" op1_i [22] $end
$var wire 1 q" op1_i [21] $end
$var wire 1 r" op1_i [20] $end
$var wire 1 s" op1_i [19] $end
$var wire 1 t" op1_i [18] $end
$var wire 1 u" op1_i [17] $end
$var wire 1 v" op1_i [16] $end
$var wire 1 w" op1_i [15] $end
$var wire 1 x" op1_i [14] $end
$var wire 1 y" op1_i [13] $end
$var wire 1 z" op1_i [12] $end
$var wire 1 {" op1_i [11] $end
$var wire 1 |" op1_i [10] $end
$var wire 1 }" op1_i [9] $end
$var wire 1 ~" op1_i [8] $end
$var wire 1 !# op1_i [7] $end
$var wire 1 "# op1_i [6] $end
$var wire 1 ## op1_i [5] $end
$var wire 1 $# op1_i [4] $end
$var wire 1 %# op1_i [3] $end
$var wire 1 &# op1_i [2] $end
$var wire 1 '# op1_i [1] $end
$var wire 1 (# op1_i [0] $end
$var wire 1 V! op2_i [31] $end
$var wire 1 W! op2_i [30] $end
$var wire 1 X! op2_i [29] $end
$var wire 1 Y! op2_i [28] $end
$var wire 1 Z! op2_i [27] $end
$var wire 1 [! op2_i [26] $end
$var wire 1 \! op2_i [25] $end
$var wire 1 ]! op2_i [24] $end
$var wire 1 ^! op2_i [23] $end
$var wire 1 _! op2_i [22] $end
$var wire 1 `! op2_i [21] $end
$var wire 1 a! op2_i [20] $end
$var wire 1 b! op2_i [19] $end
$var wire 1 c! op2_i [18] $end
$var wire 1 d! op2_i [17] $end
$var wire 1 e! op2_i [16] $end
$var wire 1 f! op2_i [15] $end
$var wire 1 g! op2_i [14] $end
$var wire 1 h! op2_i [13] $end
$var wire 1 i! op2_i [12] $end
$var wire 1 j! op2_i [11] $end
$var wire 1 k! op2_i [10] $end
$var wire 1 l! op2_i [9] $end
$var wire 1 m! op2_i [8] $end
$var wire 1 n! op2_i [7] $end
$var wire 1 o! op2_i [6] $end
$var wire 1 p! op2_i [5] $end
$var wire 1 q! op2_i [4] $end
$var wire 1 r! op2_i [3] $end
$var wire 1 s! op2_i [2] $end
$var wire 1 t! op2_i [1] $end
$var wire 1 u! op2_i [0] $end
$var reg 32 )# res_o [31:0] $end
$var reg 1 *# zero_o $end
$var reg 1 +# neg_o $end
$upscope $end

$scope module reg_stage2 $end
$var parameter 32 ,# DWIDTH $end
$var wire 1 8 clk $end
$var wire 1 9 rst $end
$var wire 1 -# in_i [31] $end
$var wire 1 .# in_i [30] $end
$var wire 1 /# in_i [29] $end
$var wire 1 0# in_i [28] $end
$var wire 1 1# in_i [27] $end
$var wire 1 2# in_i [26] $end
$var wire 1 3# in_i [25] $end
$var wire 1 4# in_i [24] $end
$var wire 1 5# in_i [23] $end
$var wire 1 6# in_i [22] $end
$var wire 1 7# in_i [21] $end
$var wire 1 8# in_i [20] $end
$var wire 1 9# in_i [19] $end
$var wire 1 :# in_i [18] $end
$var wire 1 ;# in_i [17] $end
$var wire 1 <# in_i [16] $end
$var wire 1 =# in_i [15] $end
$var wire 1 ># in_i [14] $end
$var wire 1 ?# in_i [13] $end
$var wire 1 @# in_i [12] $end
$var wire 1 A# in_i [11] $end
$var wire 1 B# in_i [10] $end
$var wire 1 C# in_i [9] $end
$var wire 1 D# in_i [8] $end
$var wire 1 E# in_i [7] $end
$var wire 1 F# in_i [6] $end
$var wire 1 G# in_i [5] $end
$var wire 1 H# in_i [4] $end
$var wire 1 I# in_i [3] $end
$var wire 1 J# in_i [2] $end
$var wire 1 K# in_i [1] $end
$var wire 1 L# in_i [0] $end
$var reg 32 M# out_o [31:0] $end
$upscope $end

$scope module reg_stage3 $end
$var parameter 32 N# DWIDTH $end
$var wire 1 8 clk $end
$var wire 1 9 rst $end
$var wire 1 O# in_i [31] $end
$var wire 1 P# in_i [30] $end
$var wire 1 Q# in_i [29] $end
$var wire 1 R# in_i [28] $end
$var wire 1 S# in_i [27] $end
$var wire 1 T# in_i [26] $end
$var wire 1 U# in_i [25] $end
$var wire 1 V# in_i [24] $end
$var wire 1 W# in_i [23] $end
$var wire 1 X# in_i [22] $end
$var wire 1 Y# in_i [21] $end
$var wire 1 Z# in_i [20] $end
$var wire 1 [# in_i [19] $end
$var wire 1 \# in_i [18] $end
$var wire 1 ]# in_i [17] $end
$var wire 1 ^# in_i [16] $end
$var wire 1 _# in_i [15] $end
$var wire 1 `# in_i [14] $end
$var wire 1 a# in_i [13] $end
$var wire 1 b# in_i [12] $end
$var wire 1 c# in_i [11] $end
$var wire 1 d# in_i [10] $end
$var wire 1 e# in_i [9] $end
$var wire 1 f# in_i [8] $end
$var wire 1 g# in_i [7] $end
$var wire 1 h# in_i [6] $end
$var wire 1 i# in_i [5] $end
$var wire 1 j# in_i [4] $end
$var wire 1 k# in_i [3] $end
$var wire 1 l# in_i [2] $end
$var wire 1 m# in_i [1] $end
$var wire 1 n# in_i [0] $end
$var reg 32 o# out_o [31:0] $end
$upscope $end
$upscope $end
$upscope $end
$upscope $end
$upscope $end
$enddefinitions $end
#0
$dumpvars
0!
x"
05
x6
0;
0<
0=
0I
b0 >
b0 ?
b0 @
b0 A
b0 /!
10!
01!
b0 B
bx C
bx S!
b0 D
b0 E
bx F
bx 8"
bx 9"
b0 ?"
1@"
0A"
bx :"
bx c"
bx )#
x*#
x+#
bx ;"
bx M#
bx o#
x%
x&
x'
x)
x*
x+
bx ,
bx -
bx .
bx /
bx 0
bx 1
bx 2
bx 3
bx 4
b100000 :
b100000 J
b100000 2!
b100000 T!
b100000 U!
b100000 <"
b100000 B"
b100000 d"
b100000 ,#
b100000 N#
b0 7
b0 #
b0 $
bx (
08
x9
0G
0H
0L
0K
0l
0k
0j
0i
0h
0g
0f
0e
0d
0c
0b
0a
0`
0_
0^
0]
0\
0[
0Z
0Y
0X
0W
0V
0U
0T
0S
0R
0Q
0P
0O
0N
0M
0.!
0-!
0,!
0+!
0*!
0)!
0(!
0'!
0&!
0%!
0$!
0#!
0"!
0!!
0~
0}
0|
0{
0z
0y
0x
0w
0v
0u
0t
0s
0r
0q
0p
0o
0n
0m
0R!
0Q!
0P!
0O!
0N!
0M!
0L!
0K!
0J!
0I!
0H!
0G!
0F!
0E!
0D!
0C!
0B!
0A!
0@!
0?!
0>!
0=!
0<!
0;!
0:!
09!
08!
07!
06!
05!
04!
03!
0u!
0t!
0s!
0r!
0q!
0p!
0o!
0n!
0m!
0l!
0k!
0j!
0i!
0h!
0g!
0f!
0e!
0d!
0c!
0b!
0a!
0`!
0_!
0^!
0]!
0\!
0[!
0Z!
0Y!
0X!
0W!
0V!
07"
06"
05"
04"
03"
02"
01"
00"
0/"
0."
0-"
0,"
0+"
0*"
0)"
0("
0'"
0&"
0%"
0$"
0#"
0""
0!"
0~!
0}!
0|!
0{!
0z!
0y!
0x!
0w!
0v!
1f"
0e"
0>"
0="
xb"
xa"
x`"
x_"
x^"
x]"
x\"
x["
xZ"
xY"
xX"
xW"
xV"
xU"
xT"
xS"
xR"
xQ"
xP"
xO"
xN"
xM"
xL"
xK"
xJ"
xI"
xH"
xG"
xF"
xE"
xD"
xC"
x(#
x'#
x&#
x%#
x$#
x##
x"#
x!#
x~"
x}"
x|"
x{"
xz"
xy"
xx"
xw"
xv"
xu"
xt"
xs"
xr"
xq"
xp"
xo"
xn"
xm"
xl"
xk"
xj"
xi"
xh"
xg"
xL#
xK#
xJ#
xI#
xH#
xG#
xF#
xE#
xD#
xC#
xB#
xA#
x@#
x?#
x>#
x=#
x<#
x;#
x:#
x9#
x8#
x7#
x6#
x5#
x4#
x3#
x2#
x1#
x0#
x/#
x.#
x-#
xn#
xm#
xl#
xk#
xj#
xi#
xh#
xg#
xf#
xe#
xd#
xc#
xb#
xa#
x`#
x_#
x^#
x]#
x\#
x[#
xZ#
xY#
xX#
xW#
xV#
xU#
xT#
xS#
xR#
xQ#
xP#
xO#
$end
#1
15
1!
18
b0 S!
b1 #
0)
0*
0+
b0 ,
b0 -
b0 .
b0 /
b0 0
b0 2
b0 3
b1 7
16
1"
b0 C
19
b1 @
b1 >
b100000000000000000000000000000 ?
b1 B
b1 D
b100000000000000000000000000000 E
1;
1R!
1G
1I
1=
1x!
1u!
1o
1l
1L
b11100000000000000000000000000001 /!
00!
11!
b100000000000000000000000000001 ?"
0@"
b100000000000000000000000000001 9"
b11100000000000000000000000000001 A
1b"
0a"
0`"
0_"
0^"
0]"
0\"
0["
0Z"
0Y"
0X"
0W"
0V"
0U"
0T"
0S"
0R"
0Q"
0P"
0O"
0N"
0M"
0L"
0K"
0J"
0I"
0H"
0G"
0F"
1E"
0D"
0C"
1L#
0K#
0J#
0I#
0H#
0G#
0F#
0E#
0D#
0C#
0B#
0A#
0@#
0?#
0>#
0=#
0<#
0;#
0:#
09#
08#
07#
06#
05#
04#
03#
02#
01#
00#
1/#
0.#
0-#
#2
05
0!
08
#3
15
1!
18
b0 c"
b0 M#
b0 o#
b10 #
b0 (
1'
1)
1+
b1 ,
b1 -
b100000000000000000000000000000 .
b11100000000000000000000000000001 /
b1 0
b0 1
b1 2
b100000000000000000000000000000 3
b10 7
b0 8"
b0 ;"
b0 :"
b0 F
0n#
0m#
0l#
0k#
0j#
0i#
0h#
0g#
0f#
0e#
0d#
0c#
0b#
0a#
0`#
0_#
0^#
0]#
0\#
0[#
0Z#
0Y#
0X#
0W#
0V#
0U#
0T#
0S#
0R#
0Q#
0P#
0O#
0(#
0'#
0&#
0%#
0$#
0##
0"#
0!#
0~"
0}"
0|"
0{"
0z"
0y"
0x"
0w"
0v"
0u"
0t"
0s"
0r"
0q"
0p"
0o"
0n"
0m"
0l"
0k"
0j"
0i"
0h"
0g"
b11111111111111111111111111111111 )#
0*#
1+#
b10 @
b10 >
b10000000000000000000000000000 ?
b10 B
b10 D
b10000000000000000000000000000000 E
0;
1<
b11111111111111111111111111111111 9"
0R!
1Q!
0G
1H
1a"
1`"
1_"
1^"
1]"
1\"
1["
1Z"
1Y"
1X"
1W"
1V"
1U"
1T"
1S"
1R"
1Q"
1P"
1O"
1N"
1M"
1L"
1K"
1J"
1I"
1H"
1G"
1F"
1D"
1C"
1K#
1J#
1I#
1H#
1G#
1F#
1E#
1D#
1C#
1B#
1A#
1@#
1?#
1>#
1=#
1<#
1;#
1:#
19#
18#
17#
16#
15#
14#
13#
12#
11#
10#
1.#
1-#
0x!
1v!
0u!
1t!
1p
0o
0l
1k
0L
1K
b0 /!
10!
01!
b11111111111111111111111111111110 )#
b10000000000000000000000000000010 ?"
1A"
b10000000000000000000000000000010 9"
b11111111111111111111111111111110 9"
b0 A
0b"
0L#
#4
05
0!
08
#5
15
1!
18
b11 #
0)
1*
b10 ,
b10 -
b10000000000000000000000000000 .
b0 /
b10 0
b10 2
b10000000000000000000000000000000 3
b0 4
b11 7
b11 @
b11 >
b110000000000000000000000000000 ?
b11 B
b11 D
b10100000000000000000000000000000 E
1;
1R!
1G
0I
0=
1x!
1u!
1o
1l
1L
b110000000000000000000000000011 /!
00!
b11111111111111111111111111111101 )#
b10100000000000000000000000000011 ?"
b10100000000000000000000000000011 9"
b11111111111111111111111111111101 9"
b110000000000000000000000000011 A
1b"
0a"
1L#
0K#
#6
05
0!
08
#7
15
1!
18
b100 #
1)
0+
b11 ,
b11 -
b110000000000000000000000000000 .
b110000000000000000000000000011 /
b11 0
b11 2
b10100000000000000000000000000000 3
b100 7
b0 @
b100 >
b10000000000000000000000000000000 ?
b100 B
b100 D
b1000000000000000000000000000000 E
0;
0<
0R!
0Q!
1P!
0G
0H
0x!
1w!
0v!
0u!
0t!
1s!
0p
0o
1m
0l
0k
1j
0L
0K
b10000000000000000000000000000100 /!
11!
b11111111111111111111111111111100 )#
b1000000000000000000000000000100 ?"
0A"
b1000000000000000000000000000100 9"
b11111111111111111111111111111100 9"
b10000000000000000000000000000100 A
0b"
0L#
#8
05
0!
08
#9
15
1!
18
b101 #
0)
0*
b0 ,
b100 -
b10000000000000000000000000000000 .
b10000000000000000000000000000100 /
b100 0
b100 2
b1000000000000000000000000000000 3
b101 7
b1 @
b101 >
b10100000000000000000000000000000 ?
b101 B
b101 D
b1100000000000000000000000000000 E
1;
1R!
1G
1I
1=
1x!
1u!
1o
1l
1L
b1100000000000000000000000000101 /!
01!
b11111111111111111111111111111011 )#
b1100000000000000000000000000101 ?"
b1100000000000000000000000000101 9"
b11111111111111111111111111111011 9"
b1100000000000000000000000000101 A
1b"
1a"
0`"
1L#
1K#
0J#
#10
05
0!
08
#11
15
1!
18
b110 #
1)
1+
b1 ,
b101 -
b10100000000000000000000000000000 .
b1100000000000000000000000000101 /
b101 0
b101 2
b1100000000000000000000000000000 3
b110 7
06
0"
09
b10 @
b110 >
b10010000000000000000000000000000 ?
b110 B
b110 D
b11000000000000000000000000000000 E
0;
1<
0R!
1Q!
0G
1H
0x!
1v!
0u!
1t!
1p
0o
0l
1k
0L
1K
b0 /!
10!
b11111111111111111111111111111010 )#
b11000000000000000000000000000110 ?"
1A"
b11000000000000000000000000000110 9"
b11111111111111111111111111111010 9"
b0 A
0b"
0L#
#12
05
0!
08
#13
15
1!
18
b110 S!
b11111111111111111111111111111010 c"
b11111111111111111111111111111010 M#
b111 #
b1 (
0'
1&
0)
1*
b10 ,
b110 -
b10010000000000000000000000000000 .
b0 /
b110 0
b110 2
b11000000000000000000000000000000 3
b111 7
b11111111111111111111111111111010 ;"
b11111111111111111111111111111010 :"
b110 C
1m#
1k#
1j#
1i#
1h#
1g#
1f#
1e#
1d#
1c#
1b#
1a#
1`#
1_#
1^#
1]#
1\#
1[#
1Z#
1Y#
1X#
1W#
1V#
1U#
1T#
1S#
1R#
1Q#
1P#
1O#
1'#
1%#
1$#
1##
1"#
1!#
1~"
1}"
1|"
1{"
1z"
1y"
1x"
1w"
1v"
1u"
1t"
1s"
1r"
1q"
1p"
1o"
1n"
1m"
1l"
1k"
1j"
1i"
1h"
1g"
b11111111111111111111111111110100 )#
b11 @
b111 >
b10110000000000000000000000000000 ?
b111 B
b111 D
b11100000000000000000000000000000 E
1;
b11111111111111111111111111110100 9"
1R!
1G
0I
0a"
1`"
0_"
0K#
1J#
0I#
0=
1x!
1u!
1o
1l
1L
b10110000000000000000000000000111 /!
00!
11!
b11111111111111111111111111110011 )#
b11100000000000000000000000000111 ?"
b11100000000000000000000000000111 9"
b11111111111111111111111111110011 9"
b10110000000000000000000000000111 A
1b"
1a"
0`"
1L#
1K#
0J#
#14
05
0!
08
#15
15
1!
18
b111 S!
b11111111111111111111111111110011 c"
b11111111111111111111111111110011 M#
b11111111111111111111111111111010 o#
b1000 #
b10 (
1)
0+
b11 ,
b111 -
b10110000000000000000000000000000 .
b10110000000000000000000000000111 /
b111 0
b110 1
b111 2
b11100000000000000000000000000000 3
b1000 7
b11111111111111111111111111111010 8"
b11111111111111111111111111110011 ;"
b11111111111111111111111111110011 :"
b111 C
b11111111111111111111111111111010 F
1n#
0k#
1(#
0%#
b11111111111111111111111111101100 )#
b0 @
b1000 >
b1000000000000000000000000000000 ?
b1000 B
b1000 D
b1 E
0;
0<
b11111111111111111111111111101100 9"
0R!
0Q!
0P!
1O!
0G
0H
0b"
0a"
1`"
1_"
0^"
0L#
0K#
1J#
1I#
0H#
17"
0x!
0w!
0v!
0u!
0t!
0s!
1r!
0p
0o
1n
0m
0l
0k
0j
1i
0L
0K
b1000000000000000000000000001000 /!
01!
b11111111111111111111111111101011 )#
b1001 ?"
0A"
b1001 9"
b11111111111111111111111111101011 9"
b1000000000000000000000000001000 A
1b"
1a"
0`"
1L#
1K#
0J#
#16
05
0!
08
#17
15
1!
18
b1000 S!
b11111111111111111111111111101011 c"
b11111111111111111111111111101011 M#
b11111111111111111111111111110011 o#
b1001 #
b11 (
0)
0*
b0 ,
b1000 -
b1000000000000000000000000000000 .
b1000000000000000000000000001000 /
b1000 0
b111 1
b1000 2
b1 3
b11111111111111111111111111111010 4
b1001 7
b11111111111111111111111111110011 8"
b11111111111111111111111111101011 ;"
b11111111111111111111111111101011 :"
b1000 C
b11111111111111111111111111110011 F
1k#
0j#
1%#
0$#
b11111111111111111111111111100011 )#
b1 @
b1001 >
b1100000000000000000000000000000 ?
b1001 B
b1001 D
b100000000000000000000000000001 E
1;
b11111111111111111111111111100011 9"
1R!
1G
1I
0_"
0I#
1=
1x!
1u!
1o
1l
1L
b10100000000000000000000000001001 /!
11!
b11111111111111111111111111100010 )#
b100000000000000000000000001010 ?"
b100000000000000000000000001010 9"
b11111111111111111111111111100010 9"
b10100000000000000000000000001001 A
0b"
0L#
#18
05
0!
08
